…
The output is a textgrid that can be loaded directly into Praat or can
be read into R via `readtextgrid` package. For the wav file in the
example above (found on GitHub in the `inst` folder), running the code
above gives us the following TextGrid (as shown by reading it in using
`readtextgrid`).

    #> # A tibble: 270 × 6
    #>    tier_num tier_xmin tier_xmax  xmin  xmax text                                
    #>       <dbl>     <dbl>     <dbl> <dbl> <dbl> <chr>                               
    #>  1        1         0      281.  0     1.48 n                                   
    #>  2        1         0      281.  1.48  5.15 i'm participant one on channel one  
    #>  3        1         0      281.  5.15  5.80 n                                   
    #>  4        1         0      281.  5.80 23.5  ok um you want to start in the top …
    #>  5        1         0      281. 23.5  24.3  n                                   
    #>  6        1         0      281. 24.3  38.0  and then i have another towel that'…
    #>  7        1         0      281. 38.0  38.9  n                                   
    #>  8        1         0      281. 38.9  41.3  i don't think anything fell out of …
    #>  9        1         0      281. 41.3  41.8  n                                   
    #> 10        1         0      281. 41.8  43.1  green ok                            
    #> # ℹ 260 more rows
…
